<?xml version="1.0" encoding="utf-8"?>
<!-- Generator: Adobe Illustrator 16.0.0, SVG Export Plug-In . SVG Version: 6.00 Build 0)  -->
<!DOCTYPE svg PUBLIC "-//W3C//DTD SVG 1.1//EN" "http://www.w3.org/Graphics/SVG/1.1/DTD/svg11.dtd">
<svg version="1.1" id="Isolation_Mode" xmlns="http://www.w3.org/2000/svg" xmlns:xlink="http://www.w3.org/1999/xlink" x="0px"
	 y="0px" width="368px" height="141px" viewBox="0 0 368 141" enable-background="new 0 0 368 141" xml:space="preserve">
<path fill-rule="evenodd" clip-rule="evenodd" fill="#5B9736" d="M309.526,57.101l45.628-37.791
	c1.335-1.106,3.332-0.918,4.438,0.417v0.001c1.106,1.335,0.918,3.332-0.416,4.437l-45.629,37.792
	c-1.335,1.105-3.331,0.918-4.437-0.417l-0.001,0C308.004,60.203,308.191,58.207,309.526,57.101"/>
<path fill-rule="evenodd" clip-rule="evenodd" fill="#E1A22B" d="M283.959,47.216h59.246c1.734,0,3.152,1.418,3.152,3.151v0.001
	c0,1.733-1.419,3.151-3.152,3.151h-59.246c-1.733,0-3.151-1.417-3.151-3.151v-0.001C280.808,48.634,282.226,47.216,283.959,47.216"
	/>
<path fill="#162D67" d="M274.434,6.247l63.626,51.667c1.346,1.093,1.552,3.088,0.46,4.433l-0.001,0.001
	c-1.093,1.345-3.088,1.551-4.433,0.459L270.46,11.14c-1.345-1.092-1.553-3.087-0.46-4.433L270,6.707
	C271.093,5.361,273.088,5.154,274.434,6.247"/>
<path fill-rule="evenodd" clip-rule="evenodd" fill="#D16E1A" d="M321.01,30.617l14.62,57.414c0.428,1.681-0.598,3.404-2.276,3.832
	h-0.002c-1.679,0.428-3.403-0.597-3.831-2.276L314.9,32.173c-0.427-1.679,0.597-3.404,2.276-3.832h0.001
	C318.857,27.914,320.582,28.938,321.01,30.617"/>
<path fill="#162D67" d="M57.054,131.127c-2.917-2.318-4.705-4.565-6.151-8.008c-1.001-2.764-1.303-4.88-1.359-7.813
	c0.079-6.224,1.152-10.74,5.933-14.947c3.275-2.691,6.972-4.217,11.017-5.349c7.222-2.021,18.041-2.85,26.1-3.407l4.768-0.346V86.5
	l-0.096-1.922c-0.281-2.19-0.502-3.542-1.466-5.535l-0.489-0.836c-1.875-2.719-3.585-3.937-6.59-5.222
	c-2.601-0.979-4.824-1.444-7.571-1.809c-1.915-0.206-3.725-0.314-5.649-0.365c-2.832-0.025-5.113,0.164-7.902,0.669
	c-1.489,0.291-2.917,0.626-4.384,1.014c-2.254,0.624-4.449,1.321-6.645,2.111l-0.643,0.238V65.97l0.328-0.072l0.671-0.146
	c1.587-0.332,3.175-0.64,4.77-0.937c2.843-0.521,5.583-0.946,8.46-1.244c3.271-0.306,6.422-0.434,9.708-0.413
	c3.239,0.052,6.332,0.223,9.55,0.6c2.659,0.354,5.071,0.805,7.657,1.526c2.492,0.761,4.527,1.569,6.754,2.935
	c1.757,1.16,3.031,2.281,4.334,3.941c1.136,1.549,1.832,2.904,2.479,4.713c0.928,2.845,1.205,5.377,1.237,8.359v47.426v0.711
	l-0.025,0.028c-1.159,1.132-3.946,1.932-7.186,1.932s-6.026-0.8-7.185-1.932l-0.112-0.125v-0.614v-13.398V96.25l-5.81,0.606
	c-6.812,0.708-14.271,0.996-20.393,4.287c-3.978,2.517-5.79,5.183-6.574,9.85c-0.37,3.901-0.07,7.252,1.969,10.667
	c5.869,8.318,16.89,6.088,25.451,4.03v7.378C81.403,135.465,65.951,137.466,57.054,131.127 M20.796,66.036h21.134v8.529h-8.684
	c-5.506,0-10.519,0.528-12.456,2.771c-0.008,5.778-0.021-4.111-0.021,34.7c0.203,8.333,4.864,12.633,11.216,14.475
	c5.037,1.476,9.072,0.581,13.841-0.417v7.724c-5.44,0.85-10.891,1.928-16.09,1.333c-12.63-1.447-23.158-7.099-23.335-21.85V50.55
	v-0.715l0.025-0.024c1.159-1.13,3.947-1.928,7.185-1.928c3.239,0,6.026,0.798,7.185,1.928L20.796,66.036z M130.121,127.717
	c-4.761-3.705-7.633-7.674-9.753-13.323c-1.571-4.562-2.126-8.646-2.269-13.456c-0.058-6.461,0.629-12.121,3.052-18.146
	c2.319-5.375,5.527-9.621,10.234-13.188c10.674-7.638,28.943-8.777,40.425-2.955c6.268,3.404,9.719,8.387,11.821,15.127
	c1.317,4.577,1.72,8.802,1.764,13.55v3.996h-52.875c0.841,11.367,2.173,20.354,13.833,25.405c5.479,2.255,12.223,2.823,18.117,2.371
	c2.762-0.254,5.244-0.73,7.919-1.453c4.098-1.152,7.94-2.833,11.625-5.02v9.835c-7.765,3.13-15.027,4.677-23.488,4.866
	c-2.376,0.038-4.697-0.003-7.072-0.134c-4.514-0.324-8.516-0.934-12.857-2.242C136.616,131.66,133.512,130.187,130.121,127.717z
	 M171.203,94.101c-0.269-6.424-0.076-11.255-3.223-16.958c-6.713-10.834-23.154-10.293-30.806-0.795
	c-4.258,5.879-4.408,10.967-4.721,17.753H171.203z M214.929,128.032c2.92,0.108,5.446,0.044,8.315-0.539
	c5.576-1.135,9.765-3.147,11.177-9.122c0.279-2.402,0.261-3.577-0.731-5.777c-1.272-2.82-2.863-3.867-5.561-5.09
	c-2.465-1.035-4.872-1.635-7.462-2.233c-3.397-0.761-6.865-1.304-10.226-2.173c-3.334-0.878-6.281-1.942-9.277-3.703
	c-2.231-1.422-3.825-2.761-5.354-4.932c-1.63-2.56-2.287-4.753-2.594-7.753c-0.33-3.216-0.223-5.544,0.908-8.574
	c0.701-1.878,1.557-3.265,2.799-4.838c2.224-2.662,4.426-4.316,7.482-5.943c2.774-1.398,5.478-2.34,8.492-3.086
	c3.62-0.821,6.956-1.144,10.661-1.229c3.118-0.025,6.074,0.112,9.172,0.47c3.08,0.407,5.81,0.992,8.799,1.816
	c1.604,0.467,3.134,0.96,4.697,1.547l0.161,0.064v9.239l-0.252-0.145c-2.303-1.283-4.502-2.362-6.969-3.281
	c-2.352-0.844-4.641-1.453-7.099-1.91c-3.012-0.5-5.764-0.676-8.819-0.503c-2.229,0.173-4.068,0.495-6.203,1.167
	c-1.924,0.68-3.144,1.301-4.868,2.477c-2.27,1.962-3.024,3.09-3.745,6.017c-0.208,2.738-0.025,4.159,1.221,6.624
	c1.115,1.674,1.917,2.486,3.598,3.523c1.732,0.954,3.373,1.537,5.26,2.107c2.929,0.843,5.868,1.485,8.86,2.052
	c7.157,1.322,16.058,3.427,20.219,10.003c0.992,1.76,1.446,3.153,1.838,5.131c0.406,2.543,0.491,4.861,0.067,7.396
	c-0.871,4.359-2.88,7.705-6.206,10.638c-2.896,2.409-5.953,3.995-9.47,5.311c-3.674,1.29-6.859,1.891-10.733,2.269
	c-2.442,0.198-4.796,0.269-7.246,0.252c-2.64-0.055-5.114-0.222-7.735-0.537c-2.499-0.345-4.78-0.796-7.227-1.402
	c-2.654-0.691-5.165-1.447-7.725-2.433l-0.428-0.174v-9.763l0.044,0.027l0.395,0.241l0.412,0.239
	c2.662,1.507,5.714,2.883,8.593,3.918C206.54,126.966,210.277,127.796,214.929,128.032z M262.34,131.127
	c-2.917-2.318-4.704-4.565-6.15-8.008c-1.001-2.764-1.302-4.88-1.358-7.813c0.078-6.224,1.151-10.74,5.932-14.947
	c3.276-2.691,6.972-4.217,11.018-5.349c7.222-2.021,18.04-2.85,26.101-3.407l4.768-0.346V86.5l-0.096-1.922
	c-0.281-2.19-0.502-3.542-1.466-5.535l-0.489-0.836c-1.875-2.719-3.585-3.937-6.59-5.222c-2.601-0.979-4.824-1.444-7.571-1.809
	c-1.915-0.206-3.725-0.314-5.649-0.365c-2.833-0.025-5.114,0.164-7.903,0.669c-1.489,0.291-2.917,0.626-4.384,1.014
	c-2.255,0.624-4.449,1.321-6.645,2.111l-0.643,0.238V65.97l0.328-0.072l0.671-0.146c1.588-0.332,3.174-0.64,4.77-0.937
	c2.843-0.521,5.583-0.946,8.46-1.244c3.271-0.306,6.422-0.434,9.707-0.413c3.239,0.052,6.332,0.223,9.55,0.6
	c2.659,0.354,5.072,0.805,7.657,1.526c2.492,0.761,4.527,1.569,6.754,2.935c1.758,1.16,3.032,2.281,4.335,3.941
	c1.136,1.549,1.831,2.904,2.479,4.713c0.927,2.845,1.204,5.377,1.236,8.359v47.426v0.711l-0.024,0.028
	c-1.158,1.132-3.946,1.932-7.186,1.932c-3.238,0-6.025-0.8-7.185-1.932l-0.111-0.125v-0.614v-13.398V96.25l-5.811,0.606
	c-6.812,0.708-14.271,0.996-20.392,4.287c-3.978,2.517-5.79,5.183-6.574,9.85c-0.37,3.901-0.069,7.252,1.969,10.667
	c5.869,8.318,16.89,6.088,25.451,4.03v7.378C286.689,135.465,271.237,137.466,262.34,131.127z"/>
</svg>
